{
  "todos": [
    {
      "id": 8,
      "name": "Nouvelle tache",
      "hour": "Jun 24th",
      "deleted": "false",
      "update": "true"
    },
    {
      "id": 9,
      "name": "2eme tache",
      "hour": "Jun 24th",
      "deleted": "false",
      "update": "true"
    },
    {
      "id": 10,
      "name": "3eme tache",
      "hour": "Jun 24th",
      "deleted": "false",
      "update": "true"
    },
    {
      "name": "Oé",
      "hour": "Jun 24th",
      "deleted": "false",
      "update": "true",
      "id": 11
    }
  ]
}